<?xml version="1.0" encoding="UTF-8"?>
<session version="1.0">
<refactoring comment="型 &apos;chapter2.HelloServlet&apos; を &apos;HelloWorldServlet&apos; に名前変更します&#x0D;&#x0A;- 元のプロジェクト: &apos;Chapter2&apos;&#x0D;&#x0A;- オリジナル要素: &apos;chapter2.HelloServlet&apos;&#x0D;&#x0A;- 名前変更済み要素: &apos;chapter2.HelloWorldServlet&apos;&#x0D;&#x0A;- リファクタリングされた要素の参照を更新&#x0D;&#x0A;- コメントおよびストリング内のテキスト出現箇所の更新" description="型名 &apos;HelloServlet&apos; を変更します" flags="589830" id="org.eclipse.jdt.ui.rename.type" input="/src&lt;chapter2{HelloServlet.java[HelloServlet" matchStrategy="1" name="HelloWorldServlet" qualified="false" references="true" similarDeclarations="false" stamp="1640151099071" textual="false" version="1.0"/>
</session>